%YAML 1.1
%TAG !u! tag:unity3d.com,2011:
--- !u!114 &11400000
MonoBehaviour:
  m_ObjectHideFlags: 0
  m_PrefabParentObject: {fileID: 0}
  m_PrefabInternal: {fileID: 0}
  m_GameObject: {fileID: 0}
  m_Enabled: 1
  m_EditorHideFlags: 0
  m_Script: {fileID: -770389242, guid: 4df21bd079886d84699ca7be1316c7a7, type: 3}
  m_Name: Default Material Palette
  m_EditorClassIdentifier: 
  array:
  - {fileID: 2100000, guid: a8602bfe1dd909b4180f71308bbe6138, type: 2}
  - {fileID: 2100000, guid: 1ab720e4dee3e6342b3573e5932f72ad, type: 2}
  - {fileID: 2100000, guid: 370eab60cabc16540af2423b06b9a458, type: 2}
  - {fileID: 0}
  - {fileID: 0}
  - {fileID: 0}
  - {fileID: 0}
  - {fileID: 0}
  - {fileID: 0}
  - {fileID: 0}
